\BOOKMARK [0][-]{Doc-Start}{\376\377\001\020\036\301\000\040\000t\000\340\000i\000\040\000t\036\321\000t\000\040\000n\000g\000h\000i\036\307\000p}{}% 1
\BOOKMARK [0][-]{section*.6}{\376\377\000T\000h\000u\036\255\000t\000\040\000n\000g\036\357}{}% 2
\BOOKMARK [0][-]{chapter*.10}{\376\377\000L\036\335\000i\000\040\000n\000\363\000i\000\040\001\021\036\247\000u}{}% 3
\BOOKMARK [0][-]{chapter.1}{\376\377\000C\001\241\000\040\000s\036\337\000\040\000l\000\375\000\040\000t\000h\000u\000y\036\277\000t}{}% 4
\BOOKMARK [1][-]{section.1.1}{\376\377\000T\036\325\000n\000g\000\040\000q\000u\000a\000n\000\040\000v\036\301\000\040\000c\000\341\000c\000\040\000t\000h\000u\036\255\000t\000\040\000t\000o\000\341\000n\000\040\000t\036\321\000i\000\040\001\260\000u}{chapter.1}% 5
\BOOKMARK [1][-]{section.1.2}{\376\377\000G\000i\036\243\000i\000\040\000t\000h\000u\036\255\000t\000\040\000d\000i\000\040\000t\000r\000u\000y\036\301\000n}{chapter.1}% 6
\BOOKMARK [1][-]{section.1.3}{\376\377\000G\000i\036\243\000i\000\040\000t\000h\000u\036\255\000t\000\040\000t\000i\036\277\000n\000\040\000h\000\363\000a\000\040\001\021\000a\000\040\000n\000h\000\342\000n\000\040\000t\036\321}{chapter.1}% 7
\BOOKMARK [0][-]{chapter.2}{\376\377\000B\000\340\000i\000\040\000t\000o\000\341\000n\000\040\000C\000\342\000y\000\040\000k\000h\000u\000n\000g\000\040\000p\000h\000\342\000n\000\040\000c\036\345\000m\000\040\000c\000\363\000\040\001\021\001\260\036\335\000n\000g\000\040\001\021\000i\000\040\000n\000g\036\257\000n\000\040\000n\000h\036\245\000t}{}% 8
\BOOKMARK [1][-]{section.2.1}{\376\377\000G\000i\036\333\000i\000\040\000t\000h\000i\036\307\000u\000\040\000b\000\340\000i\000\040\000t\000o\000\341\000n\000\040\000C\000\342\000y\000\040\000k\000h\000u\000n\000g\000\040\000p\000h\000\342\000n\000\040\000c\036\345\000m\000\040\000c\000\363\000\040\001\021\001\260\036\335\000n\000g\000\040\001\021\000i\000\040\000n\000g\036\257\000n\000\040\000n\000h\036\245\000t}{chapter.2}% 9
\BOOKMARK [1][-]{section.2.2}{\376\377\000P\000h\000\341\000t\000\040\000b\000i\036\303\000u\000\040\000b\000\340\000i\000\040\000t\000o\000\341\000n}{chapter.2}% 10
\BOOKMARK [1][-]{section.2.3}{\376\377\000C\000\341\000c\000\040\000n\000g\000h\000i\000\352\000n\000\040\000c\036\351\000u\000\040\000l\000i\000\352\000n\000\040\000q\000u\000a\000n}{chapter.2}% 11
\BOOKMARK [0][-]{chapter.3}{\376\377\000C\000h\000i\036\277\000n\000\040\000l\001\260\036\343\000c\000\040\000m\000\343\000\040\000h\000\363\000a\000\040\000g\000i\036\243\000m\000\040\000c\000h\000i\036\301\000u\000\040\000k\000h\000\364\000n\000g\000\040\000g\000i\000a\000n\000\040\000t\000\354\000m\000\040\000k\000i\036\277\000m}{}% 12
\BOOKMARK [1][-]{section.3.1}{\376\377\000L\000\375\000\040\000d\000o\000\040\000x\000u\036\245\000t\000\040\000p\000h\000\341\000t\000\040\000c\036\347\000a\000\040\000\375\000\040\000t\001\260\036\337\000n\000g}{chapter.3}% 13
\BOOKMARK [1][-]{section.3.2}{\376\377\000B\000i\036\303\000u\000\040\000d\000i\036\305\000n\000\040\000m\000\343\000\040\000h\000\363\000a\000\040\001\021\036\301\000\040\000x\000u\036\245\000t}{chapter.3}% 14
\BOOKMARK [1][-]{section.3.3}{\376\377\000P\000h\001\260\001\241\000n\000g\000\040\000p\000h\000\341\000p\000\040\000h\000i\036\307\000u\000\040\000c\000h\036\311\000n\000h\000\040\000m\000\343\000\040\000h\000\363\000a\000\040\000k\000h\000\364\000n\000g\000\040\000h\036\343\000p\000\040\000l\036\307}{chapter.3}% 15
\BOOKMARK [1][-]{section.3.4}{\376\377\000P\000h\001\260\001\241\000n\000g\000\040\000p\000h\000\341\000p\000\040\000g\000i\036\243\000i\000\040\000m\000\343\000\040\001\021\036\301\000\040\000x\000u\036\245\000t}{chapter.3}% 16
\BOOKMARK [0][-]{chapter.4}{\376\377\000G\000i\036\243\000i\000\040\000t\000h\000u\036\255\000t\000\040\000t\000i\036\277\000n\000\040\000h\000\363\000a\000\040\001\021\000a\000\040\000n\000h\000\342\000n\000\040\000t\036\321\000\040\000g\000i\036\243\000i\000\040\000b\000\340\000i\000\040\000t\000o\000\341\000n\000\040\000C\000\342\000y\000\040\000k\000h\000u\000n\000g\000\040\000p\000h\000\342\000n\000\040\000c\036\345\000m\000\040\000c\000\363\000\040\001\021\001\260\036\335\000n\000g\000\040\001\021\000i\000\040\000n\000g\036\257\000n\000\040\000n\000h\036\245\000t}{}% 17
\BOOKMARK [1][-]{section.4.1}{\376\377\000P\000h\001\260\001\241\000n\000g\000\040\000p\000h\000\341\000p\000\040\000x\000\342\000y\000\040\000d\036\361\000n\000g\000\040\000k\000h\000\364\000n\000g\000\040\000g\000i\000a\000n\000\040\000t\000\354\000m\000\040\000k\000i\036\277\000m\000\040\000c\000h\000u\000n\000g}{chapter.4}% 18
\BOOKMARK [1][-]{section.4.2}{\376\377\000K\000h\036\337\000i\000\040\000t\036\241\000o\000\040\000c\000\341\000\040\000t\000h\036\303}{chapter.4}% 19
\BOOKMARK [1][-]{section.4.3}{\376\377\000T\000o\000\341\000n\000\040\000t\036\355\000\040\000l\000a\000i\000\040\000g\000h\000\351\000p}{chapter.4}% 20
\BOOKMARK [1][-]{section.4.4}{\376\377\000T\000o\000\341\000n\000\040\000t\036\355\000\040\001\021\036\331\000t\000\040\000b\000i\036\277\000n}{chapter.4}% 21
\BOOKMARK [1][-]{section.4.5}{\376\377\000P\000h\001\260\001\241\000n\000g\000\040\000p\000h\000\341\000p\000\040\000x\000\342\000y\000\040\000d\036\361\000n\000g\000\040\000b\000i\036\303\000u\000\040\000d\000i\036\305\000n\000\040\000c\000\341\000\040\000t\000h\036\303\000\040\000r\000i\000\352\000n\000g\000\040\000t\000r\000o\000n\000g\000\040\000t\036\353\000n\000g\000\040\000t\000\341\000c\000\040\000v\036\345}{chapter.4}% 22
\BOOKMARK [1][-]{section.4.6}{\376\377\000P\000h\001\260\001\241\000n\000g\000\040\000p\000h\000\341\000p\000\040\001\021\000\341\000n\000h\000\040\000g\000i\000\341\000\040\001\021\036\301\000\040\000x\000u\036\245\000t}{chapter.4}% 23
\BOOKMARK [1][-]{section.4.7}{\376\377\001\020\036\331\000\040\000p\000h\036\351\000c\000\040\000t\036\241\000p\000\040\000c\036\347\000a\000\040\000t\000h\000u\036\255\000t\000\040\000t\000o\000\341\000n}{chapter.4}% 24
\BOOKMARK [0][-]{chapter.5}{\376\377\000K\036\277\000t\000\040\000q\000u\036\243\000\040\000t\000h\036\361\000c\000\040\000n\000g\000h\000i\036\307\000m}{}% 25
\BOOKMARK [1][-]{section.5.1}{\376\377\000D\036\357\000\040\000l\000i\036\307\000u\000\040\000t\000h\036\361\000c\000\040\000n\000g\000h\000i\036\307\000m}{chapter.5}% 26
\BOOKMARK [1][-]{section.5.2}{\376\377\000K\036\313\000c\000h\000\040\000b\036\243\000n\000\040\000t\000h\036\361\000c\000\040\000n\000g\000h\000i\036\307\000m}{chapter.5}% 27
\BOOKMARK [1][-]{section.5.3}{\376\377\000T\000i\000\352\000u\000\040\000c\000h\000\355\000\040\000t\000h\036\361\000c\000\040\000n\000g\000h\000i\036\307\000m}{chapter.5}% 28
\BOOKMARK [1][-]{section.5.4}{\376\377\000P\000h\000\342\000n\000\040\000t\000\355\000c\000h\000\040\000d\036\361\000a\000\040\000t\000r\000\352\000n\000\040\000c\000\341\000c\000\040\000t\000e\000s\000t\000\040\000t\000h\036\321\000n\000g\000\040\000k\000\352}{chapter.5}% 29
\BOOKMARK [1][-]{section.5.5}{\376\377\000S\000o\000\040\000s\000\341\000n\000h\000\040\000c\000h\000i\000\040\000t\000i\036\277\000t\000\040\000t\000h\000u\036\255\000t\000\040\000t\000o\000\341\000n\000\040\000K\000-\000M\000F\000E\000A\000\040\000v\036\333\000i\000\040\000G\000-\000M\000F\000E\000A\000\040\000v\000\340\000\040\000H\000B\000-\000R\000G\000A\000\040\000t\000r\000\352\000n\000\040\000c\000h\036\245\000t\000\040\000l\001\260\036\343\000n\000g\000\040\000l\036\335\000i\000\040\000g\000i\036\243\000i}{chapter.5}% 30
\BOOKMARK [1][-]{section.5.6}{\376\377\000S\000o\000\040\000s\000\341\000n\000h\000\040\000x\000u\000\040\000h\001\260\036\333\000n\000g\000\040\000h\036\331\000i\000\040\000t\036\345\000\040\000c\036\347\000a\000\040\000t\000h\000u\036\255\000t\000\040\000t\000o\000\341\000n}{chapter.5}% 31
\BOOKMARK [1][-]{section.5.7}{\376\377\000P\000h\000\342\000n\000\040\000t\000\355\000c\000h\000\040\000y\036\277\000u\000\040\000t\036\321\000\040\036\243\000n\000h\000\040\000h\001\260\036\337\000n\000g\000\040\001\021\036\277\000n\000\040\000c\000h\036\245\000t\000\040\000l\001\260\036\343\000n\000g\000\040\000l\036\335\000i\000\040\000g\000i\036\243\000i\000\040\000c\036\347\000a\000\040\000t\000h\000u\036\255\000t\000\040\000t\000o\000\341\000n}{chapter.5}% 32
\BOOKMARK [0][-]{chapter.6}{\376\377\000K\036\277\000t\000\040\000l\000u\036\255\000n}{}% 33
\BOOKMARK [1][-]{section.6.1}{\376\377\000C\000\341\000c\000\040\001\021\000\363\000n\000g\000\040\000g\000\363\000p\000\040\000c\000h\000\355\000n\000h}{chapter.6}% 34
\BOOKMARK [1][-]{section.6.2}{\376\377\000C\000\341\000c\000\040\000h\036\241\000n\000\040\000c\000h\036\277}{chapter.6}% 35
\BOOKMARK [1][-]{section.6.3}{\376\377\000H\001\260\036\333\000n\000g\000\040\000p\000h\000\341\000t\000\040\000t\000r\000i\036\303\000n}{chapter.6}% 36
\BOOKMARK [0][-]{section.6.3}{\376\377\000T\000\340\000i\000\040\000l\000i\036\307\000u\000\040\000t\000h\000a\000m\000\040\000k\000h\036\243\000o}{}% 37
\BOOKMARK [0][-]{chapter*.41}{\376\377\000P\000h\036\345\000\040\000l\036\345\000c}{}% 38
