\relax 
\providecommand\hyper@newdestlabel[2]{}
\AC@reset@newl@bel
\providecommand\HyperFirstAtBeginDocument{\AtBeginDocument}
\HyperFirstAtBeginDocument{\ifx\hyper@anchor\@undefined
\global\let\oldcontentsline\contentsline
\gdef\contentsline#1#2#3#4{\oldcontentsline{#1}{#2}{#3}}
\global\let\oldnewlabel\newlabel
\gdef\newlabel#1#2{\newlabelxx{#1}#2}
\gdef\newlabelxx#1#2#3#4#5#6{\oldnewlabel{#1}{{#2}{#3}}}
\AtEndDocument{\ifx\hyper@anchor\@undefined
\let\contentsline\oldcontentsline
\let\newlabel\oldnewlabel
\fi}
\fi}
\global\let\hyper@last\relax 
\gdef\HyperFirstAtBeginDocument#1{#1}
\providecommand\HyField@AuxAddToFields[1]{}
\providecommand\HyField@AuxAddToCoFields[2]{}
\providecommand \oddpage@label [2]{}
\providecommand\@newglossary[4]{}
\@newglossary{main}{glg}{gls}{glo}
\@newglossary{acronym}{alg}{acr}{acn}
\providecommand\@glsorder[1]{}
\providecommand\@istfilename[1]{}
\@istfilename{main.ist}
\@glsorder{word}
\@writefile{toc}{\contentsline {chapter}{Đề tài tốt nghiệp}{2}{Doc-Start}\protected@file@percent }
\@writefile{toc}{\contentsline {chapter}{Thuật ngữ}{5}{section*.6}\protected@file@percent }
\citation{chen2017clustered_steiner_tree}
\citation{demidio2019hardness}
\citation{back1996evolutionary}
\citation{gupta2016mfea}
\citation{thanh2018cmfea}
\citation{binh2018emfea}
\citation{binh2019dijkstra}
\@writefile{toc}{\contentsline {chapter}{Lời nói đầu}{10}{chapter*.10}\protected@file@percent }
\citation{demidio2019hardness}
\citation{garey1979computers}
\citation{yang2010nature}
\citation{doerr2017fast}
\@writefile{toc}{\contentsline {chapter}{\numberline {1}Cơ sở lý thuyết}{12}{chapter.1}\protected@file@percent }
\@writefile{lof}{\addvspace {10\p@ }}
\@writefile{lot}{\addvspace {10\p@ }}
\@writefile{loa}{\addvspace {10\p@ }}
\newlabel{chap:intro}{{1}{12}{Cơ sở lý thuyết}{chapter.1}{}}
\@writefile{toc}{\contentsline {section}{\numberline {1.1}Tổng quan về các thuật toán tối ưu}{12}{section.1.1}\protected@file@percent }
\newlabel{intro:overview}{{1.1}{12}{Tổng quan về các thuật toán tối ưu}{section.1.1}{}}
\citation{du2016particle}
\citation{deng2019improved}
\citation{xue2018self}
\citation{poli2007particle}
\citation{rashedi2009gsa}
\citation{rao2011teaching}
\citation{doerr2017fast}
\citation{gupta2016mfea}
\citation{doerr2017fast}
\@writefile{toc}{\contentsline {section}{\numberline {1.2}Giải thuật di truyền}{14}{section.1.2}\protected@file@percent }
\newlabel{intro:ga}{{1.2}{14}{Giải thuật di truyền}{section.1.2}{}}
\@writefile{loa}{\contentsline {algocf}{\numberline {1}{\ignorespaces Lược đồ giải thuật di truyền\relax }}{15}{algocf.1}\protected@file@percent }
\providecommand*\caption@xref[2]{\@setref\relax\@undefined{#1}}
\newlabel{alg:ga}{{1}{15}{Giải thuật di truyền}{algocf.1}{}}
\@writefile{toc}{\contentsline {subsection}{\numberline {1.2.1}Khởi tạo quần thể}{15}{subsection.1.2.1}\protected@file@percent }
\newlabel{ga:init}{{1.2.1}{15}{Khởi tạo quần thể}{subsection.1.2.1}{}}
\@writefile{toc}{\contentsline {subsection}{\numberline {1.2.2}Tính toán độ thích nghi}{15}{subsection.1.2.2}\protected@file@percent }
\newlabel{ga:eval}{{1.2.2}{15}{Tính toán độ thích nghi}{subsection.1.2.2}{}}
\@writefile{toc}{\contentsline {subsection}{\numberline {1.2.3}Chiến lược chọn lọc bố mẹ}{16}{subsection.1.2.3}\protected@file@percent }
\newlabel{ga:select_ss}{{1.2.3}{16}{Chiến lược chọn lọc bố mẹ}{subsection.1.2.3}{}}
\@writefile{toc}{\contentsline {subsection}{\numberline {1.2.4}Toán tử lai ghép}{16}{subsection.1.2.4}\protected@file@percent }
\newlabel{ga:cross}{{1.2.4}{16}{Toán tử lai ghép}{subsection.1.2.4}{}}
\@writefile{toc}{\contentsline {subsection}{\numberline {1.2.5}Toán tử đột biến}{16}{subsection.1.2.5}\protected@file@percent }
\newlabel{ga:mutation}{{1.2.5}{16}{Toán tử đột biến}{subsection.1.2.5}{}}
\@writefile{toc}{\contentsline {subsection}{\numberline {1.2.6}Chiến lược chọn lọc sinh tồn}{17}{subsection.1.2.6}\protected@file@percent }
\newlabel{ga:select_survive}{{1.2.6}{17}{Chiến lược chọn lọc sinh tồn}{subsection.1.2.6}{}}
\citation{gupta2016mfea}
\@writefile{toc}{\contentsline {subsection}{\numberline {1.2.7}Điều kiện dừng của thuật toán}{18}{subsection.1.2.7}\protected@file@percent }
\newlabel{ga:stop}{{1.2.7}{18}{Điều kiện dừng của thuật toán}{subsection.1.2.7}{}}
\@writefile{toc}{\contentsline {section}{\numberline {1.3}Giải thuật tiến hóa đa nhân tố}{18}{section.1.3}\protected@file@percent }
\newlabel{intro:mfea}{{1.3}{18}{Giải thuật tiến hóa đa nhân tố}{section.1.3}{}}
\citation{gupta2016genetic_transfer}
\citation{bali2018mfeaii}
\@writefile{loa}{\contentsline {algocf}{\numberline {2}{\ignorespaces Quá trình sinh sản trong MFEA\relax }}{20}{algocf.2}\protected@file@percent }
\newlabel{alg:intro_crossover_mfea}{{2}{20}{Giải thuật tiến hóa đa nhân tố}{algocf.2}{}}
\@writefile{lof}{\contentsline {figure}{\numberline {1.1}{\ignorespaces Lược đồ thuật toán tiến hóa đa nhân tố (MFEA)\relax }}{21}{figure.caption.13}\protected@file@percent }
\newlabel{fig:intro_mfea}{{1.1}{21}{Lược đồ thuật toán tiến hóa đa nhân tố (MFEA)\relax }{figure.caption.13}{}}
\citation{wong1980worst}
\citation{wu2014steiner_ratio}
\citation{demidio2016on_cluspt}
\citation{lin2017clumcrt}
\@writefile{toc}{\contentsline {chapter}{\numberline {2}Bài toán Cây khung phân cụm có đường đi ngắn nhất}{22}{chapter.2}\protected@file@percent }
\@writefile{lof}{\addvspace {10\p@ }}
\@writefile{lot}{\addvspace {10\p@ }}
\@writefile{loa}{\addvspace {10\p@ }}
\newlabel{chap:problem}{{2}{22}{Bài toán Cây khung phân cụm có đường đi ngắn nhất}{chapter.2}{}}
\@writefile{toc}{\contentsline {section}{\numberline {2.1}Giới thiệu bài toán Cây khung phân cụm có đường đi ngắn nhất}{22}{section.2.1}\protected@file@percent }
\citation{demidio2016on_cluspt}
\citation{wu2014steiner_ratio}
\@writefile{toc}{\contentsline {section}{\numberline {2.2}Phát biểu bài toán}{23}{section.2.2}\protected@file@percent }
\@writefile{toc}{\contentsline {subsection}{\numberline {2.2.1}Một số định nghĩa và ký hiệu}{23}{subsection.2.2.1}\protected@file@percent }
\newlabel{fig:application_a}{{2.1a}{24}{Hệ thống cáp quang\relax }{figure.caption.15}{}}
\newlabel{sub@fig:application_a}{{a}{24}{Hệ thống cáp quang\relax }{figure.caption.15}{}}
\newlabel{fig:application_b}{{2.1b}{24}{Hệ thống cáp đồng trục\relax }{figure.caption.15}{}}
\newlabel{sub@fig:application_b}{{b}{24}{Hệ thống cáp đồng trục\relax }{figure.caption.15}{}}
\newlabel{fig:application_c}{{2.1c}{24}{Bản đồ thiết kế trung tâm cung cấp hậu cần của quân đội Pháp \relax }{figure.caption.15}{}}
\newlabel{sub@fig:application_c}{{c}{24}{Bản đồ thiết kế trung tâm cung cấp hậu cần của quân đội Pháp \relax }{figure.caption.15}{}}
\newlabel{fig:application_d}{{2.1d}{24}{Hệ thống tác chiến điện tử\relax }{figure.caption.15}{}}
\newlabel{sub@fig:application_d}{{d}{24}{Hệ thống tác chiến điện tử\relax }{figure.caption.15}{}}
\newlabel{fig:application_e}{{2.1e}{24}{Hệ thống phân phối điện năng\relax }{figure.caption.15}{}}
\newlabel{sub@fig:application_e}{{e}{24}{Hệ thống phân phối điện năng\relax }{figure.caption.15}{}}
\newlabel{fig:application_f}{{2.1f}{24}{Hệ thông tưới tiêu trong nông nghiệp\relax }{figure.caption.15}{}}
\newlabel{sub@fig:application_f}{{f}{24}{Hệ thông tưới tiêu trong nông nghiệp\relax }{figure.caption.15}{}}
\@writefile{lof}{\contentsline {figure}{\numberline {2.1}{\ignorespaces Các ứng dụng thực tiễn của bài toán \gls {cluspt}\relax }}{24}{figure.caption.15}\protected@file@percent }
\newlabel{fig:application}{{2.1}{24}{Các ứng dụng thực tiễn của bài toán \gls {cluspt}\relax }{figure.caption.15}{}}
\@writefile{toc}{\contentsline {subsection}{\numberline {2.2.2}Bài toán Cây khung phân cụm có đường đi ngắn nhất}{25}{subsection.2.2.2}\protected@file@percent }
\citation{mestria2012grasp}
\citation{thanh2018cmfea}
\citation{binh2018emfea}
\citation{bali2017ldamfea}
\newlabel{fig:problem_a}{{2.2a}{26}{\relax }{figure.caption.16}{}}
\newlabel{sub@fig:problem_a}{{a}{26}{\relax }{figure.caption.16}{}}
\newlabel{fig:problem_b}{{2.2b}{26}{\relax }{figure.caption.16}{}}
\newlabel{sub@fig:problem_b}{{b}{26}{\relax }{figure.caption.16}{}}
\newlabel{fig:problem_c}{{2.2c}{26}{\relax }{figure.caption.16}{}}
\newlabel{sub@fig:problem_c}{{c}{26}{\relax }{figure.caption.16}{}}
\@writefile{lof}{\contentsline {figure}{\numberline {2.2}{\ignorespaces Các trường hợp lời giải của bài toán \gls {cluspt}\relax }}{26}{figure.caption.16}\protected@file@percent }
\newlabel{fig:problem}{{2.2}{26}{Các trường hợp lời giải của bài toán \gls {cluspt}\relax }{figure.caption.16}{}}
\newlabel{lemma:localroot}{{2.2.1}{26}{}{theorem.2.2.1}{}}
\@writefile{toc}{\contentsline {section}{\numberline {2.3}Các nghiên cứu liên quan}{26}{section.2.3}\protected@file@percent }
\citation{binh2018emfea}
\citation{thanh2018cmfea}
\citation{binh2019dijkstra}
\citation{thanh2020efficient}
\citation{thanh2019greedy}
\@writefile{toc}{\contentsline {chapter}{\numberline {3}Chiến lược mã hóa giảm chiều không gian tìm kiếm}{28}{chapter.3}\protected@file@percent }
\@writefile{lof}{\addvspace {10\p@ }}
\@writefile{lot}{\addvspace {10\p@ }}
\@writefile{loa}{\addvspace {10\p@ }}
\newlabel{chap:encoding}{{3}{28}{Chiến lược mã hóa giảm chiều không gian tìm kiếm}{chapter.3}{}}
\@writefile{toc}{\contentsline {section}{\numberline {3.1}Lý do xuất phát của ý tưởng}{28}{section.3.1}\protected@file@percent }
\newlabel{sec:reason}{{3.1}{28}{Lý do xuất phát của ý tưởng}{section.3.1}{}}
\newlabel{eq:fitness}{{3.1}{28}{Lý do xuất phát của ý tưởng}{equation.3.1.1}{}}
\@writefile{toc}{\contentsline {section}{\numberline {3.2}Biểu diễn mã hóa đề xuất}{29}{section.3.2}\protected@file@percent }
\newlabel{fig:encoding_a}{{3.1a}{30}{\relax }{figure.caption.17}{}}
\newlabel{sub@fig:encoding_a}{{a}{30}{\relax }{figure.caption.17}{}}
\newlabel{fig:encoding_b}{{3.1b}{30}{\relax }{figure.caption.17}{}}
\newlabel{sub@fig:encoding_b}{{b}{30}{\relax }{figure.caption.17}{}}
\newlabel{fig:encoding_c}{{3.1c}{30}{\relax }{figure.caption.17}{}}
\newlabel{sub@fig:encoding_c}{{c}{30}{\relax }{figure.caption.17}{}}
\@writefile{lof}{\contentsline {figure}{\numberline {3.1}{\ignorespaces Ví dụ về quá trình mã hóa cá thể\relax }}{30}{figure.caption.17}\protected@file@percent }
\newlabel{fig:encoding}{{3.1}{30}{Ví dụ về quá trình mã hóa cá thể\relax }{figure.caption.17}{}}
\@writefile{toc}{\contentsline {section}{\numberline {3.3}Phương pháp hiệu chỉnh mã hóa không hợp lệ}{30}{section.3.3}\protected@file@percent }
\@writefile{lof}{\contentsline {figure}{\numberline {3.2}{\ignorespaces Quá trình sửa chữa mã hóa không hợp lệ\relax }}{31}{figure.caption.18}\protected@file@percent }
\newlabel{fig:mfea_repairmethod}{{3.2}{31}{Quá trình sửa chữa mã hóa không hợp lệ\relax }{figure.caption.18}{}}
\newlabel{lemma:repair}{{3.3.1}{32}{}{theorem.3.3.1}{}}
\@writefile{toc}{\contentsline {section}{\numberline {3.4}Phương pháp giải mã đề xuất}{32}{section.3.4}\protected@file@percent }
\@writefile{loa}{\contentsline {algocf}{\numberline {3}{\ignorespaces Phương thức hiệu chỉnh mã hóa không hợp lệ\relax }}{33}{algocf.3}\protected@file@percent }
\newlabel{alg:repair}{{3}{33}{Phương pháp hiệu chỉnh mã hóa không hợp lệ}{algocf.3}{}}
\@writefile{lof}{\contentsline {figure}{\numberline {3.3}{\ignorespaces Quá trình giải mã\relax }}{35}{figure.caption.20}\protected@file@percent }
\newlabel{fig:mfea_decoding}{{3.3}{35}{Quá trình giải mã\relax }{figure.caption.20}{}}
\@writefile{loa}{\contentsline {algocf}{\numberline {4}{\ignorespaces Phương pháp xây dựng lời giải của bài toán \gls {cluspt}\relax }}{36}{algocf.4}\protected@file@percent }
\newlabel{alg:decoding}{{4}{36}{Phương pháp giải mã đề xuất}{algocf.4}{}}
\@writefile{toc}{\contentsline {chapter}{\numberline {4}Giải thuật tiến hóa đa nhân tố giải bài toán Cây khung phân cụm có đường đi ngắn nhất}{37}{chapter.4}\protected@file@percent }
\@writefile{lof}{\addvspace {10\p@ }}
\@writefile{lot}{\addvspace {10\p@ }}
\@writefile{loa}{\addvspace {10\p@ }}
\newlabel{chap:mfea}{{4}{37}{Giải thuật tiến hóa đa nhân tố giải bài toán Cây khung phân cụm có đường đi ngắn nhất}{chapter.4}{}}
\@writefile{toc}{\contentsline {section}{\numberline {4.1}Phương pháp xây dựng không gian tìm kiếm chung}{37}{section.4.1}\protected@file@percent }
\newlabel{mfea:uss}{{4.1}{37}{Phương pháp xây dựng không gian tìm kiếm chung}{section.4.1}{}}
\@writefile{loa}{\contentsline {algocf}{\numberline {5}{\ignorespaces Thuật toán đa nhiệm đề xuất giải đa bài toán \gls {cluspt} đồng thời\relax }}{38}{algocf.5}\protected@file@percent }
\newlabel{alg:mfea_main}{{5}{38}{Giải thuật tiến hóa đa nhân tố giải bài toán Cây khung phân cụm có đường đi ngắn nhất}{algocf.5}{}}
\newlabel{fig:uss_a}{{4.1a}{39}{\relax }{figure.caption.23}{}}
\newlabel{sub@fig:uss_a}{{a}{39}{\relax }{figure.caption.23}{}}
\newlabel{fig:uss_b}{{4.1b}{39}{\relax }{figure.caption.23}{}}
\newlabel{sub@fig:uss_b}{{b}{39}{\relax }{figure.caption.23}{}}
\newlabel{fig:uss_c}{{4.1c}{39}{\relax }{figure.caption.23}{}}
\newlabel{sub@fig:uss_c}{{c}{39}{\relax }{figure.caption.23}{}}
\newlabel{fig:uss_d}{{4.1d}{39}{\relax }{figure.caption.23}{}}
\newlabel{sub@fig:uss_d}{{d}{39}{\relax }{figure.caption.23}{}}
\newlabel{fig:uss_e}{{4.1e}{39}{\relax }{figure.caption.23}{}}
\newlabel{sub@fig:uss_e}{{e}{39}{\relax }{figure.caption.23}{}}
\@writefile{lof}{\contentsline {figure}{\numberline {4.1}{\ignorespaces Quá trình xây dựng không gian tìm kiếm chung của thuật toán \gls {mfea} với hai tác vụ.\relax }}{39}{figure.caption.23}\protected@file@percent }
\newlabel{fig:uss}{{4.1}{39}{Quá trình xây dựng không gian tìm kiếm chung của thuật toán \gls {mfea} với hai tác vụ.\relax }{figure.caption.23}{}}
\@writefile{toc}{\contentsline {section}{\numberline {4.2}Khởi tạo cá thể}{39}{section.4.2}\protected@file@percent }
\@writefile{loa}{\contentsline {algocf}{\numberline {6}{\ignorespaces Phương thức khởi tạo cá thể\relax }}{40}{algocf.6}\protected@file@percent }
\newlabel{alg:init_method}{{6}{40}{Khởi tạo cá thể}{algocf.6}{}}
\@writefile{toc}{\contentsline {section}{\numberline {4.3}Toán tử lai ghép}{40}{section.4.3}\protected@file@percent }
\newlabel{fig:crossover_a}{{4.2a}{40}{\relax }{figure.caption.25}{}}
\newlabel{sub@fig:crossover_a}{{a}{40}{\relax }{figure.caption.25}{}}
\newlabel{fig:crossover_b}{{4.2b}{40}{\relax }{figure.caption.25}{}}
\newlabel{sub@fig:crossover_b}{{b}{40}{\relax }{figure.caption.25}{}}
\@writefile{lof}{\contentsline {figure}{\numberline {4.2}{\ignorespaces Ví dụ minh họa toán tử lai ghép \relax }}{40}{figure.caption.25}\protected@file@percent }
\newlabel{fig:crossover}{{4.2}{40}{Ví dụ minh họa toán tử lai ghép \relax }{figure.caption.25}{}}
\@writefile{toc}{\contentsline {section}{\numberline {4.4}Toán tử đột biến}{40}{section.4.4}\protected@file@percent }
\@writefile{loa}{\contentsline {algocf}{\numberline {7}{\ignorespaces Toán tử lai ghép\relax }}{41}{algocf.7}\protected@file@percent }
\newlabel{alg:crossover}{{7}{41}{Toán tử lai ghép}{algocf.7}{}}
\@writefile{loa}{\contentsline {algocf}{\numberline {8}{\ignorespaces Toán tử đột biến\relax }}{41}{algocf.8}\protected@file@percent }
\newlabel{alg:mutaion}{{8}{41}{Toán tử đột biến}{algocf.8}{}}
\newlabel{fig:mutation_a}{{4.3a}{42}{\relax }{figure.caption.28}{}}
\newlabel{sub@fig:mutation_a}{{a}{42}{\relax }{figure.caption.28}{}}
\newlabel{fig:mutation_b}{{4.3b}{42}{\relax }{figure.caption.28}{}}
\newlabel{sub@fig:mutation_b}{{b}{42}{\relax }{figure.caption.28}{}}
\newlabel{fig:mutation_c}{{4.3c}{42}{\relax }{figure.caption.28}{}}
\newlabel{sub@fig:mutation_c}{{c}{42}{\relax }{figure.caption.28}{}}
\@writefile{lof}{\contentsline {figure}{\numberline {4.3}{\ignorespaces Ví dụ minh họa toán tử đột biến\relax }}{42}{figure.caption.28}\protected@file@percent }
\newlabel{fig:mutation}{{4.3}{42}{Ví dụ minh họa toán tử đột biến\relax }{figure.caption.28}{}}
\@writefile{toc}{\contentsline {section}{\numberline {4.5}Phương pháp xây dựng biểu diễn cá thể riêng trong từng tác vụ}{42}{section.4.5}\protected@file@percent }
\@writefile{loa}{\contentsline {algocf}{\numberline {9}{\ignorespaces Phương pháp xây dựng biểu diễn cá thể trong từng tác vụ\relax }}{43}{algocf.9}\protected@file@percent }
\newlabel{alg:decoding1}{{9}{43}{Phương pháp xây dựng biểu diễn cá thể riêng trong từng tác vụ}{algocf.9}{}}
\newlabel{fig:mfea_decodingMFEA_a}{{4.4a}{44}{\relax }{figure.caption.30}{}}
\newlabel{sub@fig:mfea_decodingMFEA_a}{{a}{44}{\relax }{figure.caption.30}{}}
\newlabel{fig:mfea_decodingMFEA_b}{{4.4b}{44}{\relax }{figure.caption.30}{}}
\newlabel{sub@fig:mfea_decodingMFEA_b}{{b}{44}{\relax }{figure.caption.30}{}}
\@writefile{lof}{\contentsline {figure}{\numberline {4.4}{\ignorespaces Quá trình xây dựng biểu diễn cá thể trong không gian riêng\relax }}{44}{figure.caption.30}\protected@file@percent }
\newlabel{fig:mfea_decodingMFEA}{{4.4}{44}{Quá trình xây dựng biểu diễn cá thể trong không gian riêng\relax }{figure.caption.30}{}}
\@writefile{toc}{\contentsline {section}{\numberline {4.6}Phương pháp đánh giá đề xuất}{44}{section.4.6}\protected@file@percent }
\@writefile{toc}{\contentsline {section}{\numberline {4.7}Độ phức tạp của thuật toán}{44}{section.4.7}\protected@file@percent }
\citation{mestria2012grasp}
\citation{thanh2018cluspt_instance}
\citation{thanh2020efficient}
\citation{thanh2019greedy}
\@writefile{toc}{\contentsline {chapter}{\numberline {5}Kết quả thực nghiệm}{46}{chapter.5}\protected@file@percent }
\@writefile{lof}{\addvspace {10\p@ }}
\@writefile{lot}{\addvspace {10\p@ }}
\@writefile{loa}{\addvspace {10\p@ }}
\newlabel{chap:results}{{5}{46}{Kết quả thực nghiệm}{chapter.5}{}}
\@writefile{toc}{\contentsline {section}{\numberline {5.1}Dữ liệu thực nghiệm}{46}{section.5.1}\protected@file@percent }
\@writefile{toc}{\contentsline {section}{\numberline {5.2}Kịch bản thực nghiệm}{46}{section.5.2}\protected@file@percent }
\citation{pop_two-level_2018}
\citation{derrac2011practical}
\citation{derrac2011practical}
\@writefile{toc}{\contentsline {section}{\numberline {5.3}Tiêu chí thực nghiệm}{47}{section.5.3}\protected@file@percent }
\@writefile{lot}{\contentsline {table}{\numberline {5.1}{\ignorespaces Các tiêu chí đánh giá chất lượng của lời giải\relax }}{47}{table.caption.31}\protected@file@percent }
\newlabel{tab:criteria}{{5.1}{47}{Các tiêu chí đánh giá chất lượng của lời giải\relax }{table.caption.31}{}}
\@writefile{toc}{\contentsline {section}{\numberline {5.4}Phân tích dựa trên các test thống kê}{47}{section.5.4}\protected@file@percent }
\@writefile{lot}{\contentsline {table}{\numberline {5.2}{\ignorespaces Hạng của các thuật toán thu được bởi việc sử dụng các test thống kê Friedman, Friedman Aligned và Quade \relax }}{48}{table.caption.32}\protected@file@percent }
\newlabel{tab:Results_Rank}{{5.2}{48}{Hạng của các thuật toán thu được bởi việc sử dụng các test thống kê Friedman, Friedman Aligned và Quade \relax }{table.caption.32}{}}
\@writefile{lot}{\contentsline {table}{\numberline {5.3}{\ignorespaces Kết quả thống kê thu được của Friedman và Iman-Davenport test ($\alpha $=0.05)\relax }}{48}{table.caption.33}\protected@file@percent }
\newlabel{tab:Results_Friedman}{{5.3}{48}{Kết quả thống kê thu được của Friedman và Iman-Davenport test ($\alpha $=0.05)\relax }{table.caption.33}{}}
\@writefile{lot}{\contentsline {table}{\numberline {5.4}{\ignorespaces Giá trị z-values và p-values của các thủ tục thống kê Friedman và Quade (K-MFEA là thuật toán điều khiển)\relax }}{48}{table.caption.34}\protected@file@percent }
\newlabel{tab:CompareControlAlg}{{5.4}{48}{Giá trị z-values và p-values của các thủ tục thống kê Friedman và Quade (\glsentrytext {k-mfea} là thuật toán điều khiển)\relax }{table.caption.34}{}}
\@writefile{toc}{\contentsline {section}{\numberline {5.5}So sánh chi tiết thuật toán K-MFEA với G-MFEA và HB-RGA trên chất lượng lời giải}{48}{section.5.5}\protected@file@percent }
\@writefile{lot}{\contentsline {table}{\numberline {5.5}{\ignorespaces Giá trị p-values hiệu chỉnh cho test thống kê Friedman (K-MFEA là thuật toán điều khiển)\relax }}{49}{table.caption.35}\protected@file@percent }
\newlabel{tab:Adjust_p_FriedmanAliged}{{5.5}{49}{Giá trị p-values hiệu chỉnh cho test thống kê Friedman (\glsentrytext {k-mfea} là thuật toán điều khiển)\relax }{table.caption.35}{}}
\@writefile{lot}{\contentsline {table}{\numberline {5.6}{\ignorespaces Giá trị p-values hiệu chỉnh cho test thống kê QUADE (K-MFEA là thuật toán điều khiển)\relax }}{49}{table.caption.36}\protected@file@percent }
\newlabel{tab:Adjust_p_QUADE}{{5.6}{49}{Giá trị p-values hiệu chỉnh cho test thống kê QUADE (\glsentrytext {k-mfea} là thuật toán điều khiển)\relax }{table.caption.36}{}}
\@writefile{lot}{\contentsline {table}{\numberline {5.7}{\ignorespaces Bảng tổng hợp kết quả so sánh của K-MFEA với các thuật toán trước đó\relax }}{49}{table.caption.37}\protected@file@percent }
\newlabel{tab:SummaryResults}{{5.7}{49}{Bảng tổng hợp kết quả so sánh của \glsentrytext {k-mfea} với các thuật toán trước đó\relax }{table.caption.37}{}}
\citation{gupta2016mfea}
\newlabel{fig:RPD_Avg}{{5.1a}{50}{Giá trị \glsentrytext {rpd} trung bình\relax }{figure.caption.38}{}}
\newlabel{sub@fig:RPD_Avg}{{a}{50}{Giá trị \glsentrytext {rpd} trung bình\relax }{figure.caption.38}{}}
\newlabel{fig:RPD_Max}{{5.1b}{50}{Giá trị \glsentrytext {rpd} tối đa\relax }{figure.caption.38}{}}
\newlabel{sub@fig:RPD_Max}{{b}{50}{Giá trị \glsentrytext {rpd} tối đa\relax }{figure.caption.38}{}}
\@writefile{lof}{\contentsline {figure}{\numberline {5.1}{\ignorespaces Giá trị RPD trung bình và RPD tối đa của K-MFEA trong sự so sánh với G-MFEA và HB-RGA trên các kiểu dữ liệu\relax }}{50}{figure.caption.38}\protected@file@percent }
\newlabel{fig:RPD}{{5.1}{50}{Giá trị RPD trung bình và RPD tối đa của \glsentrytext {k-mfea} trong sự so sánh với \glsentrytext {g-mfea} và \glsentrytext {hbrga} trên các kiểu dữ liệu\relax }{figure.caption.38}{}}
\@writefile{toc}{\contentsline {section}{\numberline {5.6}So sánh xu hướng hội tụ của thuật toán}{50}{section.5.6}\protected@file@percent }
\newlabel{fig:Type_1_convergence}{{5.2a}{51}{Kiểu 1\relax }{figure.caption.39}{}}
\newlabel{sub@fig:Type_1_convergence}{{a}{51}{Kiểu 1\relax }{figure.caption.39}{}}
\newlabel{fig:Type_5_convergence}{{5.2b}{51}{Kiểu 5\relax }{figure.caption.39}{}}
\newlabel{sub@fig:Type_5_convergence}{{b}{51}{Kiểu 5\relax }{figure.caption.39}{}}
\newlabel{fig:Type_6_convergence}{{5.2c}{51}{Kiểu 6\relax }{figure.caption.39}{}}
\newlabel{sub@fig:Type_6_convergence}{{c}{51}{Kiểu 6\relax }{figure.caption.39}{}}
\@writefile{lof}{\contentsline {figure}{\numberline {5.2}{\ignorespaces Xu hướng hội tụ của K-MFEA so với G-MFEA khi giải hai bộ 10pr439 và 25a280 trong kiểu 1; bộ 5i300-108 và 5i400-205 trong kiểu 5; bộ 9pcb442-3x3 và 9pr439-3x3 trong kiểu 6 đồng thời.\relax }}{51}{figure.caption.39}\protected@file@percent }
\newlabel{fig:ConvergenceTrends}{{5.2}{51}{Xu hướng hội tụ của K-MFEA so với G-MFEA khi giải hai bộ 10pr439 và 25a280 trong kiểu 1; bộ 5i300-108 và 5i400-205 trong kiểu 5; bộ 9pcb442-3x3 và 9pr439-3x3 trong kiểu 6 đồng thời.\relax }{figure.caption.39}{}}
\@writefile{toc}{\contentsline {section}{\numberline {5.7}Phân tích yếu tố ảnh hưởng đến chất lượng lời giải của thuật toán}{52}{section.5.7}\protected@file@percent }
\newlabel{fig:Type1_NumCluster_N_MFEA_HBRGA}{{5.3a}{53}{Kiểu 1\relax }{figure.caption.40}{}}
\newlabel{sub@fig:Type1_NumCluster_N_MFEA_HBRGA}{{a}{53}{Kiểu 1\relax }{figure.caption.40}{}}
\newlabel{fig:Type5_NumCluster_N_MFEA_HBRGA}{{5.3b}{53}{Kiểu 5\relax }{figure.caption.40}{}}
\newlabel{sub@fig:Type5_NumCluster_N_MFEA_HBRGA}{{b}{53}{Kiểu 5\relax }{figure.caption.40}{}}
\newlabel{fig:Type6_NumCluster_N_MFEA_HBRGA}{{5.3c}{53}{Kiểu 6\relax }{figure.caption.40}{}}
\newlabel{sub@fig:Type6_NumCluster_N_MFEA_HBRGA}{{c}{53}{Kiểu 6\relax }{figure.caption.40}{}}
\@writefile{lof}{\contentsline {figure}{\numberline {5.3}{\ignorespaces Biểu đồ thống kê dựa trên yếu tố số lượng đỉnh đến hiệu suất K-MFEA so với G-MFEA trên kiểu 1, 5 và 6\relax }}{53}{figure.caption.40}\protected@file@percent }
\newlabel{fig:Scatter_NumCluster}{{5.3}{53}{Biểu đồ thống kê dựa trên yếu tố số lượng đỉnh đến hiệu suất K-MFEA so với G-MFEA trên kiểu 1, 5 và 6\relax }{figure.caption.40}{}}
\@writefile{toc}{\contentsline {chapter}{\numberline {6}Kết luận}{54}{chapter.6}\protected@file@percent }
\@writefile{lof}{\addvspace {10\p@ }}
\@writefile{lot}{\addvspace {10\p@ }}
\@writefile{loa}{\addvspace {10\p@ }}
\@writefile{toc}{\contentsline {section}{\numberline {6.1}Các đóng góp chính}{54}{section.6.1}\protected@file@percent }
\@writefile{toc}{\contentsline {section}{\numberline {6.2}Các hạn chế}{54}{section.6.2}\protected@file@percent }
\bibstyle{IEEEtran}
\bibdata{ref}
\@writefile{toc}{\contentsline {section}{\numberline {6.3}Hướng phát triển}{55}{section.6.3}\protected@file@percent }
\@writefile{toc}{\contentsline {chapter}{Tài liệu tham khảo}{55}{section.6.3}\protected@file@percent }
\bibcite{chen2017clustered_steiner_tree}{{1}{}{{}}{{}}}
\bibcite{demidio2019hardness}{{2}{}{{}}{{}}}
\bibcite{back1996evolutionary}{{3}{}{{}}{{}}}
\bibcite{gupta2016mfea}{{4}{}{{}}{{}}}
\bibcite{thanh2018cmfea}{{5}{}{{}}{{}}}
\bibcite{binh2018emfea}{{6}{}{{}}{{}}}
\bibcite{binh2019dijkstra}{{7}{}{{}}{{}}}
\bibcite{garey1979computers}{{8}{}{{}}{{}}}
\bibcite{yang2010nature}{{9}{}{{}}{{}}}
\bibcite{doerr2017fast}{{10}{}{{}}{{}}}
\bibcite{du2016particle}{{11}{}{{}}{{}}}
\bibcite{deng2019improved}{{12}{}{{}}{{}}}
\bibcite{xue2018self}{{13}{}{{}}{{}}}
\bibcite{poli2007particle}{{14}{}{{}}{{}}}
\bibcite{rashedi2009gsa}{{15}{}{{}}{{}}}
\bibcite{rao2011teaching}{{16}{}{{}}{{}}}
\bibcite{gupta2016genetic_transfer}{{17}{}{{}}{{}}}
\bibcite{bali2018mfeaii}{{18}{}{{}}{{}}}
\bibcite{wong1980worst}{{19}{}{{}}{{}}}
\bibcite{wu2014steiner_ratio}{{20}{}{{}}{{}}}
\bibcite{demidio2016on_cluspt}{{21}{}{{}}{{}}}
\bibcite{lin2017clumcrt}{{22}{}{{}}{{}}}
\bibcite{mestria2012grasp}{{23}{}{{}}{{}}}
\bibcite{bali2017ldamfea}{{24}{}{{}}{{}}}
\bibcite{thanh2020efficient}{{25}{}{{}}{{}}}
\bibcite{thanh2019greedy}{{26}{}{{}}{{}}}
\bibcite{thanh2018cluspt_instance}{{27}{}{{}}{{}}}
\bibcite{pop_two-level_2018}{{28}{}{{}}{{}}}
\bibcite{derrac2011practical}{{29}{}{{}}{{}}}
\@writefile{toc}{\contentsline {chapter}{Phụ lục}{58}{chapter*.41}\protected@file@percent }
\@writefile{lot}{\contentsline {table}{\numberline {6.1}{\ignorespaces Kết quả thu được bởi G-MFEA, HB-RGA và K-MFEA trên các bộ dữ liệu Kiểu 1.\relax }}{59}{table.6.1}\protected@file@percent }
\newlabel{tab:ResultsType1}{{6.1}{59}{Kết quả thu được bởi \glsentrytext {g-mfea}, \glsentrytext {hbrga} và \glsentrytext {k-mfea} trên các bộ dữ liệu Kiểu 1.\relax }{table.6.1}{}}
\gdef \LT@i {\LT@entry 
    {2}{24.30054pt}\LT@entry 
    {1}{63.1178pt}\LT@entry 
    {2}{58.8301pt}\LT@entry 
    {2}{58.8301pt}\LT@entry 
    {2}{58.8301pt}\LT@entry 
    {2}{58.8301pt}\LT@entry 
    {2}{58.8301pt}\LT@entry 
    {2}{60.1195pt}}
\gdef \LT@ii {\LT@entry 
    {1}{21.97424pt}\LT@entry 
    {1}{56.2149pt}\LT@entry 
    {1}{53.35645pt}\LT@entry 
    {1}{53.35645pt}\LT@entry 
    {1}{53.35645pt}\LT@entry 
    {1}{53.35645pt}\LT@entry 
    {1}{53.35645pt}\LT@entry 
    {1}{54.52422pt}}
\@writefile{lot}{\contentsline {table}{\numberline {6.2}{\ignorespaces Kết quả thu được bởi G-MFEA, HB-RGA và K-MFEA trên các bộ dữ liệu Kiểu 3 và 4\relax }}{60}{table.6.2}\protected@file@percent }
\newlabel{tab:ResultsType34}{{6.2}{60}{Kết quả thu được bởi \glsentrytext {g-mfea}, \glsentrytext {hbrga} và \glsentrytext {k-mfea} trên các bộ dữ liệu Kiểu 3 và 4\relax }{table.6.2}{}}
\@writefile{lot}{\contentsline {table}{\numberline {6.3}{\ignorespaces Kết quả thu được bởi G-MFEA, HB-RGA và K-MFEA trên các bộ dữ liệu Kiểu 5\relax }}{60}{table.6.3}\protected@file@percent }
\newlabel{tab:ResultsType5}{{6.3}{60}{Kết quả thu được bởi \glsentrytext {g-mfea}, \glsentrytext {hbrga} và \glsentrytext {k-mfea} trên các bộ dữ liệu Kiểu 5\relax }{table.6.3}{}}
\gdef \LT@iii {\LT@entry 
    {2}{24.30054pt}\LT@entry 
    {2}{62.47919pt}\LT@entry 
    {2}{53.35645pt}\LT@entry 
    {2}{53.35645pt}\LT@entry 
    {2}{53.35645pt}\LT@entry 
    {2}{54.52422pt}\LT@entry 
    {2}{53.35645pt}\LT@entry 
    {2}{54.52422pt}}
\@writefile{lot}{\contentsline {table}{\numberline {6.4}{\ignorespaces Kết quả thu được bởi G-MFEA, HB-RGA và K-MFEA trên các bộ dữ liệu Kiểu 6\relax }}{61}{table.6.4}\protected@file@percent }
\newlabel{tab:ResultsType6}{{6.4}{61}{Kết quả thu được bởi \glsentrytext {g-mfea}, \glsentrytext {hbrga} và \glsentrytext {k-mfea} trên các bộ dữ liệu Kiểu 6\relax }{table.6.4}{}}
\gdef \LT@iv {\LT@entry 
    {2}{24.30054pt}\LT@entry 
    {2}{83.49193pt}\LT@entry 
    {2}{58.8301pt}\LT@entry 
    {2}{58.8301pt}\LT@entry 
    {2}{58.8301pt}\LT@entry 
    {3}{60.1195pt}\LT@entry 
    {2}{58.8301pt}\LT@entry 
    {2}{60.1195pt}}
\providecommand\NAT@force@numbers{}\NAT@force@numbers
