% Generated by IEEEtran.bst, version: 1.14 (2015/08/26)
\begin{thebibliography}{10}
\providecommand{\url}[1]{#1}
\csname url@samestyle\endcsname
\providecommand{\newblock}{\relax}
\providecommand{\bibinfo}[2]{#2}
\providecommand{\BIBentrySTDinterwordspacing}{\spaceskip=0pt\relax}
\providecommand{\BIBentryALTinterwordstretchfactor}{4}
\providecommand{\BIBentryALTinterwordspacing}{\spaceskip=\fontdimen2\font plus
\BIBentryALTinterwordstretchfactor\fontdimen3\font minus
  \fontdimen4\font\relax}
\providecommand{\BIBforeignlanguage}[2]{{%
\expandafter\ifx\csname l@#1\endcsname\relax
\typeout{** WARNING: IEEEtran.bst: No hyphenation pattern has been}%
\typeout{** loaded for the language `#1'. Using the pattern for}%
\typeout{** the default language instead.}%
\else
\language=\csname l@#1\endcsname
\fi
#2}}
\providecommand{\BIBdecl}{\relax}
\BIBdecl

\bibitem{chen2017clustered_steiner_tree}
Y.~H. Chen, ``The clustered and bottleneck clustered selected-internal steiner
  tree problems,'' in \emph{The Second Malta Conference in Graph Theory and
  Combinatorics 2017}.\hskip 1em plus 0.5em minus 0.4em\relax Qawra, St Paul's
  Bay: The Second Malta Conference in Graph Theory and Combinatorics, 2017,
  p.~44.

\bibitem{demidio2019hardness}
\BIBentryALTinterwordspacing
M.~D'Emidio, L.~Forlizzi, D.~Frigioni, S.~Leucci, and G.~Proietti, ``Hardness,
  approximability, and fixed-parameter tractability of the clustered
  shortest-path tree problem,'' \emph{Journal of Combinatorial Optimization},
  vol.~38, no.~1, pp. 165--184, Jul 2019. [Online]. Available:
  \url{https://doi.org/10.1007/s10878-018-00374-x}
\BIBentrySTDinterwordspacing

\bibitem{back1996evolutionary}
T.~Back, \emph{Evolutionary algorithms in theory and practice: evolution
  strategies, evolutionary programming, genetic algorithms}.\hskip 1em plus
  0.5em minus 0.4em\relax Oxford university press, 1996.

\bibitem{gupta2016mfea}
A.~{Gupta}, Y.~{Ong}, and L.~{Feng}, ``Multifactorial evolution: Toward
  evolutionary multitasking,'' \emph{IEEE Transactions on Evolutionary
  Computation}, vol.~20, no.~3, pp. 343--357, June 2016.

\bibitem{thanh2018cmfea}
P.~D. {Thanh}, D.~A. {Dung}, T.~N. {Tien}, and H.~T.~T. {Binh}, ``An effective
  representation scheme in multifactorial evolutionary algorithm for solving
  cluster shortest-path tree problem,'' in \emph{2018 IEEE Congress on
  Evolutionary Computation (CEC)}.\hskip 1em plus 0.5em minus 0.4em\relax Rio
  de Janeiro, Brazil: Institute of Electrical and Electronics Engineers (IEEE),
  July 2018, pp. 1--8.

\bibitem{binh2018emfea}
H.~{Thi Thanh Binh}, P.~{Dinh Thanh}, T.~{Ba Trung}, and L.~{Phuong Thao},
  ``Effective multifactorial evolutionary algorithm for solving the cluster
  shortest path tree problem,'' in \emph{2018 IEEE Congress on Evolutionary
  Computation (CEC)}.\hskip 1em plus 0.5em minus 0.4em\relax Rio de Janeiro,
  Brazil: Institute of Electrical and Electronics Engineers (IEEE), July 2018,
  pp. 1--8.

\bibitem{binh2019dijkstra}
\BIBentryALTinterwordspacing
H.~T.~T. Binh, P.~D. Thanh, and T.~B. Thang, ``New approach to solving the
  clustered shortest-path tree problem based on reducing the search space of
  evolutionary algorithm,'' \emph{Knowledge-Based Systems}, vol. 180, pp. 12 --
  25, 2019. [Online]. Available:
  \url{http://www.sciencedirect.com/science/article/pii/S0950705119302217}
\BIBentrySTDinterwordspacing

\bibitem{garey1979computers}
M.~R. Garey, ``Computers and intractability: A guide to the theory of
  np-completeness,'' \emph{Revista Da Escola De Enfermagem Da USP}, vol.~44,
  no.~2, p. 340, 1979.

\bibitem{yang2010nature}
X.-S. Yang, \emph{Nature-inspired metaheuristic algorithms}.\hskip 1em plus
  0.5em minus 0.4em\relax Luniver press, 2010.

\bibitem{doerr2017fast}
B.~Doerr, H.~P. Le, R.~Makhmara, and T.~D. Nguyen, ``Fast genetic algorithms,''
  in \emph{Proceedings of the Genetic and Evolutionary Computation Conference},
  2017, pp. 777--784.

\bibitem{du2016particle}
K.-L. Du and M.~Swamy, ``Particle swarm optimization,'' in \emph{Search and
  optimization by metaheuristics}.\hskip 1em plus 0.5em minus 0.4em\relax
  Springer, 2016, pp. 153--173.

\bibitem{deng2019improved}
W.~Deng, J.~Xu, and H.~Zhao, ``An improved ant colony optimization algorithm
  based on hybrid strategies for scheduling problem,'' \emph{IEEE access},
  vol.~7, pp. 20\,281--20\,292, 2019.

\bibitem{xue2018self}
Y.~Xue, J.~Jiang, B.~Zhao, and T.~Ma, ``A self-adaptive artificial bee colony
  algorithm based on global best for global optimization,'' \emph{Soft
  Computing}, vol.~22, no.~9, pp. 2935--2952, 2018.

\bibitem{poli2007particle}
R.~Poli, J.~Kennedy, and T.~Blackwell, ``Particle swarm optimization,''
  \emph{Swarm intelligence}, vol.~1, no.~1, pp. 33--57, 2007.

\bibitem{rashedi2009gsa}
E.~Rashedi, H.~Nezamabadi-Pour, and S.~Saryazdi, ``Gsa: a gravitational search
  algorithm,'' \emph{Information sciences}, vol. 179, no.~13, pp. 2232--2248,
  2009.

\bibitem{rao2011teaching}
R.~V. Rao, V.~J. Savsani, and D.~Vakharia, ``Teaching--learning-based
  optimization: a novel method for constrained mechanical design optimization
  problems,'' \emph{Computer-Aided Design}, vol.~43, no.~3, pp. 303--315, 2011.

\bibitem{gupta2016genetic_transfer}
A.~{Gupta} and Y.~{Ong}, ``Genetic transfer or population diversification?
  deciphering the secret ingredients of evolutionary multitask optimization,''
  in \emph{2016 IEEE Symposium Series on Computational Intelligence
  (SSCI)}.\hskip 1em plus 0.5em minus 0.4em\relax Athens, Greece: Institute of
  Electrical and Electronics Engineers (IEEE), Dec 2016, pp. 1--7.

\bibitem{bali2018mfeaii}
K.~K. {Bali}, Y.~{Ong}, A.~{Gupta}, and P.~S. {Tan}, ``Multifactorial
  evolutionary algorithm with online transfer parameter estimation: Mfea-ii,''
  \emph{IEEE Transactions on Evolutionary Computation}, vol. (Early Access),
  no.~-, pp. 1--1, march 2019.

\bibitem{wong1980worst}
R.~T. Wong, ``Worst-case analysis of network design problem heuristics,''
  \emph{SIAM Journal on Algebraic Discrete Methods}, vol.~1, no.~1, pp. 51--63,
  1980.

\bibitem{wu2014steiner_ratio}
B.~Y. Wu, C.-W. Lin, and L.-H. Chen, ``The steiner ratio of the clustered
  steiner tree problem is three,'' 2014.

\bibitem{demidio2016on_cluspt}
\BIBentryALTinterwordspacing
M.~D'Emidio, L.~Forlizzi, D.~Frigioni, S.~Leucci, and G.~Proietti, ``On the
  clustered shortest-path tree problem,'' in \emph{Proceedings of the 17th
  Italian Conference on Theoretical Computer Science, Lecce, Italy, September
  7-9, 2016.}\hskip 1em plus 0.5em minus 0.4em\relax Lecce, Italy: Italian
  Conference on Theoretical Computer, 2016, pp. 263--268. [Online]. Available:
  \url{http://ceur-ws.org/Vol-1720/short8.pdf}
\BIBentrySTDinterwordspacing

\bibitem{lin2017clumcrt}
\BIBentryALTinterwordspacing
C.-W. Lin and B.~Y. Wu, ``On the minimum routing cost clustered tree problem,''
  \emph{Journal of Combinatorial Optimization}, vol.~33, no.~3, pp. 1106--1121,
  Apr 2017. [Online]. Available:
  \url{https://doi.org/10.1007/s10878-016-0026-8}
\BIBentrySTDinterwordspacing

\bibitem{mestria2012grasp}
\BIBentryALTinterwordspacing
M.~Mestria, L.~S. Ochi, and S.~de~Lima~Martins, ``Grasp with path relinking for
  the symmetric euclidean clustered traveling salesman problem,''
  \emph{Computers and Operations Research}, vol.~40, no.~12, pp. 3218 -- 3229,
  2013. [Online]. Available:
  \url{http://www.sciencedirect.com/science/article/pii/S0305054812002122}
\BIBentrySTDinterwordspacing

\bibitem{bali2017ldamfea}
K.~K. {Bali}, A.~{Gupta}, L.~{Feng}, Y.~S. {Ong}, and {Tan Puay Siew},
  ``Linearized domain adaptation in evolutionary multitasking,'' in \emph{2017
  IEEE Congress on Evolutionary Computation (CEC)}.\hskip 1em plus 0.5em minus
  0.4em\relax Donostia/San Sebastian, Spain.: Institute of Electrical and
  Electronics Engineers (IEEE), June 2017, pp. 1295--1302.

\bibitem{thanh2020efficient}
P.~D. Thanh, H.~T.~T. Binh, and T.~B. Trung, ``An efficient strategy for using
  multifactorial optimization to solve the clustered shortest path tree
  problem,'' \emph{Applied Intelligence}, vol.~50, no.~4, pp. 1233--1258, 2020.

\bibitem{thanh2019greedy}
P.~D. {Thanh}, H.~{Thi Thanh Binh}, D.~D. {Dac}, N.~{Binh Long}, and L.~M. {Hai
  Phong}, ``A heuristic based on randomized greedy algorithms for the clustered
  shortest-path tree problem,'' in \emph{2019 IEEE Congress on Evolutionary
  Computation (CEC)}.\hskip 1em plus 0.5em minus 0.4em\relax Wellington, New
  Zealand: Institute of Electrical and Electronics Engineers (IEEE), June 2019,
  pp. 2915--2922.

\bibitem{thanh2018cluspt_instance}
\BIBentryALTinterwordspacing
P.~D. Thanh. (2018, sep) Cluspt instances - mendeley data v2. [Online].
  Available: \url{https://data.mendeley.com/datasets/b4gcgybvt6/2}
\BIBentrySTDinterwordspacing

\bibitem{pop_two-level_2018}
P.~C. Pop, O.~Matei, C.~Sabo, and A.~Petrovan, ``A two-level solution approach
  for solving the generalized minimum spanning tree problem,'' \emph{European
  Journal of Operational Research}, vol. 265, no.~2, pp. 478--487, 2018.

\bibitem{derrac2011practical}
J.~Derrac, S.~Garc{\'\i}a, D.~Molina, and F.~Herrera, ``A practical tutorial on
  the use of nonparametric statistical tests as a methodology for comparing
  evolutionary and swarm intelligence algorithms,'' \emph{Swarm and
  Evolutionary Computation}, vol.~1, no.~1, pp. 3--18, 2011.

\end{thebibliography}
